{
  "project_info": {
    "project_number": "560538301215",
    "firebase_url": "https://mchs-143412.firebaseio.com",
    "project_id": "mchs-143412",
    "storage_bucket": "mchs-143412.appspot.com"
  },
  "client": [
    {
      "client_info": {
        "mobilesdk_app_id": "1:560538301215:android:f12b66b318e50312",
        "android_client_info": {
          "package_name": "mcs.nsign.by.mcs"
        }
      },
      "oauth_client": [
        {
          "client_id": "560538301215-0kd7j2gk2cdjgp6nnkqddslgtls3msnb.apps.googleusercontent.com",
          "client_type": 1,
          "android_info": {
            "package_name": "mcs.nsign.by.mcs",
            "certificate_hash": "EAC795E228741EF2A3131492F0818A401DA11DD3"
          }
        },
        {
          "client_id": "560538301215-6v1vipk2gp509217aan29jitk2v39sjf.apps.googleusercontent.com",
          "client_type": 1,
          "android_info": {
            "package_name": "mcs.nsign.by.mcs",
            "certificate_hash": "71665E2DD9F58168484444BAA402DEB964C88D12"
          }
        },
        {
          "client_id": "560538301215-6fnsg7io5ml0119dm1k3t5e6dtev0ngo.apps.googleusercontent.com",
          "client_type": 1,
          "android_info": {
            "package_name": "mcs.nsign.by.mcs",
            "certificate_hash": "D73F2DB57F177C667F3AF4EC3EF14BAF0530D95A"
          }
        },
        {
          "client_id": "560538301215-oqs4m1qtqeqv339ss15pgihb9qp8nsjb.apps.googleusercontent.com",
          "client_type": 3
        }
      ],
      "api_key": [
        {
          "current_key": "AIzaSyB-inQCky35aV4Cl1zkGJTwC9R1liO3jnE"
        }
      ],
      "services": {
        "analytics_service": {
          "status": 1
        },
        "appinvite_service": {
          "status": 2,
          "other_platform_oauth_client": [
            {
              "client_id": "560538301215-dfeeuj15dab10mjpirfbu43u9l91iakg.apps.googleusercontent.com",
              "client_type": 2,
              "ios_info": {
                "bundle_id": "com.ensain.MobileLifesaver"
              }
            },
            {
              "client_id": "560538301215-oqs4m1qtqeqv339ss15pgihb9qp8nsjb.apps.googleusercontent.com",
              "client_type": 3
            }
          ]
        },
        "ads_service": {
          "status": 2
        }
      }
    }
  ],
  "configuration_version": "1"
}